Chapter 4 데이터 전처리 | A Minimal Book Example
…
4.5.1 길게 만들기 : pivot_longer 활용하기

long format과 wide format의 차이를 이해했다면, pivot_longer 함수를 활용해 데이터를 길게 만들어보자. btsAlbumSales_wide를 longe format으로 만들기 위해서는 다음의 파라미터를 이해해야 한다.

col : 현재는 변수로 지정되어 있지만 값(value)으로 변환할 column 이름 (지정방식은 select() 함수와 동일). 이 데이터에서는 year2016~year2019이다.

names_to : 값으로 변환될 자료들의 변수 이름. 이 데이터에서는 year이다.

values_to : wide하게 분산되어 있는 값들의 변수 이름.이 데이터에서는 sales이다.

btsAlbumSales_wide %>% 
  tidyr::pivot_longer(col=year2016:year2019, names_to="year", values_to="sales") ->long
long
## # A tibble: 24 x 3
##    album2            year      sales
##    <chr>             <chr>     <dbl>
##  1 youngForever      year2016 368369
##  2 youngForever      year2017  89761
##  3 youngForever      year2018 129838
##  4 youngForever      year2019  66344
##  5 wings             year2016 751301
##  6 wings             year2017  93132
##  7 wings             year2018 129790
##  8 wings             year2019  66770
##  9 youNeverWalkAlone year2016     NA
## 10 youNeverWalkAlone year2017 768492
## # ... with 14 more rows

long format으로 바꾼 결과를 살펴보면 year변수에 연도가, sales 변수에 각연도별 앨범판매량이 잘 결합된것을 확인할 수 있다. 하지만 year변수의 값이 wide foramt의 변수명으로 들어가 있기 때문에 year2016로 표기되어 있어 수정이 필요하다. 여러가지 방식으로 수정이 가능하지만 여기서는 str_replace()함수를 한번 활용해보도록 하겠다. str_replace는 stringr 패키지 안에 있는 함수이다. 패키지명에서 짐작할 수 있듯이 stringr은 문자열 변수를 수정하는데 활용되는 패키지이다. str_replace는 종종 사용되는 함수인데 특정 문자열을 없애거나 다른 문자로 대체하는데 쓰인다. 특정 변수의 값들의 문자열을 다른 문자로 대체하거나 없애고 싶으면 mutate()와 str_replace()를 결합하면된다. 복잡해보이지만 찬찬히 분해해보면 그리 어렵지 않다.

mutate(새로운변수=바뀌는 내용) : 여기서는 year 변수를 str_replace 함수를 활용해서 바꾸라고 제시되어 있다.

str_replace(변수명, “바뀌기전 문자,” “바뀐후 문자”) : 여기서는 year 문자를 없애는 것이다. 큰따옴표 안에 아무것도 없는 것을 확인하라

btsAlbumSales_wide %>% 
  pivot_longer(col=year2016:year2019, names_to="year", values_to="sales") %>% 
  mutate(year=str_replace(year, "year", ""))->long_replace
long_replace
## # A tibble: 24 x 3
##    album2            year   sales
##    <chr>             <chr>  <dbl>
##  1 youngForever      2016  368369
##  2 youngForever      2017   89761
##  3 youngForever      2018  129838
##  4 youngForever      2019   66344
##  5 wings             2016  751301
##  6 wings             2017   93132
##  7 wings             2018  129790
##  8 wings             2019   66770
##  9 youNeverWalkAlone 2016      NA
## 10 youNeverWalkAlone 2017  768492
## # ... with 14 more rows
…
